{
  "room": {
    "leaved": false,
    "duration": {
      "startingTime": 0,
      "endGame": "",
      "maxRoundDuration": 30,
      "pauseTime": 7,
      "endTime": 5
    },
    "settings": {
      "totalRounds": 3,
      "round": 1,
      "isPaused": false,
      "gameMode": "",
      "axesX": 7,
      "axesY": 9,
      "gameScore": {
        "win": 100,
        "loose": 20
      },
      "losePoint": 20,
      "players": {
        "maxLife": 30,
        "moveSpeed": 150,
        "w": 100,
        "h": 100
      },
      "bullets": {
        "w": 5,
        "h": 12
      },
      "ulti": {
        "w": 12,
        "h": 12
      },
      "objects": {
        "walls": {
          "totalNumber": 4,
          "w": 50,
          "h": 15,
          "form": "rect",
          "life": 10,
          "moveSpeed": 150,
          "bonusLife": 10,
          "coolDown": 4000
        }
      }
    },
    "status": {
      "stage": "landing",
      "gameStart": 0,
      "full": false
    }
  },
  "players": {
    "p1": {
      "status": {
        "connected": false,
        "ready": false,
        "userID": 0,
        "character": "hibou",
        "alive": true
      },
      "firing": {
        "bulletTarget": 0,
        "lastBullet": "",
        "firingSpeed": 400,
        "damage": 1,
        "totalShoots": 0,
        "totalTouched": 0,
        "lastTouched": {
          "ulti": 0,
          "firing": 0
        }
      },
      "ulti": {
        "lastActivation": "",
        "coolDown": 7000,
        "firingSpeed": 300,
        "damage": 7
      },
      "defense": {
        "lastActivation": "",
        "coolDown": 5000,
        "duration": 3000,
        "isActive": false
      },
      "life": 30,
      "x": 1,
      "lastX": 1,
      "score": 0,
      "lastMoveX": 0,
      "capacities": {
        "defense": false,
        "attack": false,
        "dash": false,
        "card1": null,
        "card2": null
      }
    },
    "p2": {
      "status": {
        "connected": false,
        "ready": false,
        "userID": 0,
        "character": "chat",
        "alive": true
      },
      "firing": {
        "bulletTarget": 0,
        "lastBullet": "",
        "firingSpeed": 400,
        "damage": 1,
        "totalShoots": 0,
        "totalTouched": 0,
        "lastTouched": {
          "ulti": 0,
          "firing": 0
        }
      },
      "ulti": {
        "lastActivation": "",
        "coolDown": 7000,
        "firingSpeed": 300,
        "damage": 7
      },
      "defense": {
        "lastActivation": "",
        "coolDown": 5000,
        "duration": 3000,
        "isActive": false
      },
      "life": 30,
      "x": 5,
      "lastX": 5,
      "score": 0,
      "totalShoots": 0,
      "lastMoveX": 0,
      "capacities": {
        "defense": false,
        "attack": false,
        "dash": false,
        "card1": null,
        "card2": null
      }
    }
  },
  "objects": {
    "lastMove": "",
    "updated": "empty",
    "walls": {}
  }
}
