<svg width="35" height="61" viewBox="0 0 35 61" fill="none" xmlns="http://www.w3.org/2000/svg">
<path d="M30.7083 3.9585L4.16663 30.5002L30.7083 57.0418" stroke="black" stroke-width="7.58333" stroke-linecap="round" stroke-linejoin="round"/>
</svg>
