<svg width="229" height="43" viewBox="0 0 229 43" fill="none" xmlns="http://www.w3.org/2000/svg">
<path d="M11.6374 5.20577H12.0449V4.79829H11.6374V5.20577ZM11.6374 18.5546H11.23V18.9621H11.6374V18.5546ZM37.2594 18.5546V18.9621H37.6668V18.5546H37.2594ZM37.2594 5.20577V4.79829H36.8519V5.20577H37.2594ZM45.474 5.20577H45.8815V4.79829H45.474V5.20577ZM45.474 39.4824V39.8899H45.8815V39.4824H45.474ZM37.2594 39.4824H36.8519V39.8899H37.2594V39.4824ZM37.2594 26.0847H37.6668V25.6772H37.2594V26.0847ZM11.6374 26.0847V25.6772H11.23V26.0847H11.6374ZM11.6374 39.4824V39.8899H12.0449V39.4824H11.6374ZM3.42278 39.4824H3.0153V39.8899H3.42278V39.4824ZM3.42278 5.20577V4.79829H3.0153V5.20577H3.42278ZM11.23 5.20577V18.5546H12.0449V5.20577H11.23ZM11.6374 18.9621H37.2594V18.1471H11.6374V18.9621ZM37.6668 18.5546V5.20577H36.8519V18.5546H37.6668ZM37.2594 5.61324H45.474V4.79829H37.2594V5.61324ZM45.0666 5.20577V39.4824H45.8815V5.20577H45.0666ZM45.474 39.0749H37.2594V39.8899H45.474V39.0749ZM37.6668 39.4824V26.0847H36.8519V39.4824H37.6668ZM37.2594 25.6772H11.6374V26.4922H37.2594V25.6772ZM11.23 26.0847V39.4824H12.0449V26.0847H11.23ZM11.6374 39.0749H3.42278V39.8899H11.6374V39.0749ZM3.83025 39.4824V5.20577H3.0153V39.4824H3.83025ZM3.42278 5.61324H11.6374V4.79829H3.42278V5.61324ZM51.0972 39.4824L50.7336 39.2983L50.4341 39.8899H51.0972V39.4824ZM68.4555 5.20577V4.79829H68.2051L68.092 5.02167L68.4555 5.20577ZM76.279 5.20577L76.6425 5.02167L76.5294 4.79829H76.279V5.20577ZM93.6374 39.4824V39.8899H94.3005L94.0009 39.2983L93.6374 39.4824ZM83.6624 39.4824L83.2988 39.6662L83.4118 39.8899H83.6624V39.4824ZM72.3673 17.1366L72.7309 16.9528L72.3673 16.2333L72.0036 16.9528L72.3673 17.1366ZM61.0721 39.4824V39.8899H61.3227L61.4358 39.6662L61.0721 39.4824ZM51.4607 39.6665L68.819 5.38986L68.092 5.02167L50.7336 39.2983L51.4607 39.6665ZM68.4555 5.61324H76.279V4.79829H68.4555V5.61324ZM75.9155 5.38986L93.2739 39.6665L94.0009 39.2983L76.6425 5.02167L75.9155 5.38986ZM93.6374 39.0749H83.6624V39.8899H93.6374V39.0749ZM84.0261 39.2986L72.7309 16.9528L72.0036 17.3204L83.2988 39.6662L84.0261 39.2986ZM72.0036 16.9528L60.7084 39.2986L61.4358 39.6662L72.7309 17.3204L72.0036 16.9528ZM61.0721 39.0749H51.0972V39.8899H61.0721V39.0749ZM107.473 5.20577H107.881V4.79829H107.473V5.20577ZM107.473 31.9523H107.066V32.3598H107.473V31.9523ZM134.562 31.9523H134.97V31.5448H134.562V31.9523ZM134.562 39.4824V39.8899H134.97V39.4824H134.562ZM99.2586 39.4824H98.8511V39.8899H99.2586V39.4824ZM99.2586 5.20577V4.79829H98.8511V5.20577H99.2586ZM107.066 5.20577V31.9523H107.881V5.20577H107.066ZM107.473 32.3598H134.562V31.5448H107.473V32.3598ZM134.155 31.9523V39.4824H134.97V31.9523H134.155ZM134.562 39.0749H99.2586V39.8899H134.562V39.0749ZM99.6661 39.4824V5.20577H98.8511V39.4824H99.6661ZM99.2586 5.61324H107.473V4.79829H99.2586V5.61324ZM126.072 5.20577V4.79829H125.664V5.20577H126.072ZM168.123 5.20577H168.53V4.79829H168.123V5.20577ZM168.123 12.7359V13.1433H168.53V12.7359H168.123ZM151.205 12.7359V12.3284H150.797V12.7359H151.205ZM151.205 39.4824V39.8899H151.612V39.4824H151.205ZM142.99 39.4824H142.582V39.8899H142.99V39.4824ZM142.99 12.7359H143.397V12.3284H142.99V12.7359ZM126.072 12.7359H125.664V13.1433H126.072V12.7359ZM126.072 5.61324H168.123V4.79829H126.072V5.61324ZM167.715 5.20577V12.7359H168.53V5.20577H167.715ZM168.123 12.3284H151.205V13.1433H168.123V12.3284ZM150.797 12.7359V39.4824H151.612V12.7359H150.797ZM151.205 39.0749H142.99V39.8899H151.205V39.0749ZM143.397 39.4824V12.7359H142.582V39.4824H143.397ZM142.99 12.3284H126.072V13.1433H142.99V12.3284ZM126.479 12.7359V5.20577H125.664V12.7359H126.479ZM174.869 11.4646L175.239 11.6353L175.239 11.6353L174.869 11.4646ZM177.216 8.18847L177.494 8.4864L177.499 8.48144L177.216 8.18847ZM180.639 5.98811L180.487 5.60978L180.487 5.60978L180.639 5.98811ZM209.341 5.98811L209.492 5.60978L209.492 5.60978L209.341 5.98811ZM212.764 8.18847L212.48 8.48148L212.486 8.48636L212.764 8.18847ZM215.062 11.4646L214.688 11.6274L214.692 11.6353L215.062 11.4646ZM215.062 33.2236L214.692 33.0529L214.69 33.0572L215.062 33.2236ZM212.764 36.4997L213.042 36.7976L213.047 36.7927L212.764 36.4997ZM209.341 38.7001L209.492 39.0785L209.5 39.0751L209.341 38.7001ZM180.639 38.7001L180.479 39.0752L180.487 39.0784L180.639 38.7001ZM177.216 36.4997L176.932 36.7927L176.938 36.7976L177.216 36.4997ZM174.869 33.2236L174.499 33.3944L174.5 33.3981L174.869 33.2236ZM182.79 30.8766L182.441 31.0862L182.448 31.0985L182.456 31.1103L182.79 30.8766ZM183.621 31.6589L183.831 31.3095L183.831 31.3095L183.621 31.6589ZM206.994 31.0722L206.681 30.8112L206.672 30.822L206.994 31.0722ZM206.994 13.616L206.672 13.8663L206.681 13.8769L206.994 13.616ZM183.621 13.0293L183.831 13.3787L183.831 13.3787L183.621 13.0293ZM182.79 13.8116L182.456 13.5779L182.448 13.5897L182.441 13.602L182.79 13.8116ZM182.35 14.7895L182.74 14.9066L182.74 14.9066L182.35 14.7895ZM174.396 29.1163V15.5719H173.581V29.1163H174.396ZM174.396 15.5719C174.396 14.1611 174.678 12.8505 175.239 11.6353L174.499 11.2938C173.886 12.6212 173.581 14.0489 173.581 15.5719H174.396ZM175.239 11.6353C175.804 10.4096 176.556 9.3614 177.494 8.48636L176.938 7.89058C175.919 8.84102 175.107 9.97683 174.499 11.2938L175.239 11.6353ZM177.499 8.48144C178.438 7.57404 179.533 6.86903 180.79 6.36644L180.487 5.60978C179.136 6.15033 177.95 6.91223 176.933 7.8955L177.499 8.48144ZM180.79 6.36644C182.044 5.86498 183.377 5.61324 184.795 5.61324V4.79829C183.278 4.79829 181.841 5.06811 180.487 5.60978L180.79 6.36644ZM184.795 5.61324H205.185V4.79829H184.795V5.61324ZM205.185 5.61324C206.602 5.61324 207.936 5.86498 209.19 6.36644L209.492 5.60978C208.138 5.06811 206.701 4.79829 205.185 4.79829V5.61324ZM209.19 6.36644C210.446 6.86903 211.542 7.57404 212.481 8.48144L213.047 7.8955C212.03 6.91223 210.844 6.15033 209.492 5.60978L209.19 6.36644ZM212.486 8.48636C213.421 9.35967 214.156 10.4052 214.688 11.6274L215.435 11.3017C214.86 9.98126 214.062 8.84275 213.042 7.89058L212.486 8.48636ZM214.692 11.6353C215.253 12.8505 215.535 14.1611 215.535 15.5719H216.349C216.349 14.0489 216.044 12.6212 215.432 11.2938L214.692 11.6353ZM215.535 15.5719V29.1163H216.349V15.5719H215.535ZM215.535 29.1163C215.535 30.5271 215.253 31.8376 214.692 33.0529L215.432 33.3944C216.044 32.067 216.349 30.6393 216.349 29.1163H215.535ZM214.69 33.0572C214.157 34.2484 213.421 35.2975 212.481 36.2067L213.047 36.7927C214.062 35.8113 214.858 34.6763 215.434 33.39L214.69 33.0572ZM212.486 36.2018C211.545 37.0803 210.444 37.7884 209.182 38.3251L209.5 39.0751C210.845 38.5034 212.027 37.7447 213.042 36.7976L212.486 36.2018ZM209.19 38.3217C207.936 38.8232 206.602 39.0749 205.185 39.0749V39.8899C206.701 39.8899 208.138 39.6201 209.492 39.0784L209.19 38.3217ZM205.185 39.0749H184.795V39.8899H205.185V39.0749ZM184.795 39.0749C183.377 39.0749 182.044 38.8232 180.79 38.3217L180.487 39.0784C181.841 39.6201 183.278 39.8899 184.795 39.8899V39.0749ZM180.798 38.3251C179.535 37.7884 178.435 37.0803 177.494 36.2018L176.938 36.7976C177.952 37.7447 179.134 38.5034 180.479 39.0751L180.798 38.3251ZM177.499 36.2067C176.557 35.2958 175.803 34.244 175.237 33.0492L174.5 33.3981C175.108 34.6807 175.919 35.813 176.933 36.7927L177.499 36.2067ZM175.239 33.0529C174.678 31.8376 174.396 30.5271 174.396 29.1163H173.581C173.581 30.6393 173.886 32.067 174.499 33.3944L175.239 33.0529ZM182.456 31.1103C182.716 31.4809 183.034 31.7819 183.412 32.0083L183.831 31.3095C183.556 31.1447 183.321 30.9243 183.124 30.6429L182.456 31.1103ZM183.412 32.0083C183.813 32.2489 184.279 32.3598 184.795 32.3598V31.5448C184.397 31.5448 184.082 31.4601 183.831 31.3095L183.412 32.0083ZM184.795 32.3598H205.185V31.5448H184.795V32.3598ZM205.185 32.3598C206.059 32.3598 206.781 32.0094 207.316 31.3223L206.672 30.822C206.294 31.3085 205.81 31.5448 205.185 31.5448V32.3598ZM207.307 31.333C207.853 30.6782 208.135 29.9353 208.135 29.1163H207.32C207.32 29.7316 207.113 30.2926 206.681 30.8113L207.307 31.333ZM208.135 29.1163V15.5719H207.32V29.1163H208.135ZM208.135 15.5719C208.135 14.7529 207.853 14.01 207.307 13.3552L206.681 13.8769C207.113 14.3955 207.32 14.9565 207.32 15.5719H208.135ZM207.316 13.3658C206.781 12.6788 206.059 12.3284 205.185 12.3284V13.1433C205.81 13.1433 206.294 13.3797 206.672 13.8662L207.316 13.3658ZM205.185 12.3284H184.795V13.1433H205.185V12.3284ZM184.795 12.3284C184.279 12.3284 183.813 12.4393 183.412 12.6798L183.831 13.3787C184.082 13.2281 184.397 13.1433 184.795 13.1433V12.3284ZM183.412 12.6798C183.034 12.9062 182.716 13.2073 182.456 13.5779L183.124 14.0453C183.321 13.7639 183.556 13.5434 183.831 13.3787L183.412 12.6798ZM182.441 13.602C182.23 13.9536 182.068 14.3105 181.96 14.6725L182.74 14.9066C182.827 14.6166 182.959 14.3215 183.139 14.0212L182.441 13.602ZM181.96 14.6725C181.858 15.0128 181.796 15.3178 181.796 15.5719H182.611C182.611 15.4348 182.647 15.2183 182.74 14.9066L181.96 14.6725ZM181.796 15.5719V29.1163H182.611V15.5719H181.796ZM181.796 29.1163C181.796 29.3704 181.858 29.6754 181.96 30.0157L182.74 29.7816C182.647 29.4699 182.611 29.2534 182.611 29.1163H181.796ZM181.96 30.0157C182.068 30.3777 182.23 30.7346 182.441 31.0862L183.139 30.6669C182.959 30.3667 182.827 30.0716 182.74 29.7816L181.96 30.0157Z" fill="white"/>
<path d="M14.0828 0.723343V14.0722H39.7047V0.723343H47.9193V35H39.7047V21.6023H14.0828V35H5.86809V0.723343H14.0828ZM53.5425 35L70.9008 0.723343H78.7243L96.0827 35H86.1077L74.8126 12.6542L63.5174 35H53.5425ZM109.919 0.723343V27.4699H137.007V35H101.704V0.723343H109.919ZM128.517 0.723343H170.568V8.25345H153.65V35H145.435V8.25345H128.517V0.723343ZM176.434 24.6339V11.0895C176.434 9.62256 176.727 8.25345 177.314 6.98213C177.901 5.71082 178.683 4.61879 179.661 3.70605C180.639 2.76071 181.78 2.02726 183.084 1.50569C184.388 0.984126 185.773 0.723343 187.24 0.723343H207.63C209.097 0.723343 210.482 0.984126 211.786 1.50569C213.09 2.02726 214.231 2.76071 215.209 3.70605C216.187 4.61879 216.953 5.71082 217.507 6.98213C218.094 8.25345 218.387 9.62256 218.387 11.0895V24.6339C218.387 26.1008 218.094 27.4699 217.507 28.7412C216.953 29.9799 216.187 31.072 215.209 32.0173C214.231 32.93 213.09 33.6635 211.786 34.2177C210.482 34.7392 209.097 35 207.63 35H187.24C185.773 35 184.388 34.7392 183.084 34.2177C181.78 33.6635 180.639 32.93 179.661 32.0173C178.683 31.072 177.901 29.9799 177.314 28.7412C176.727 27.4699 176.434 26.1008 176.434 24.6339ZM185.235 26.3942C185.463 26.7201 185.741 26.9809 186.067 27.1765C186.393 27.3721 186.784 27.4699 187.24 27.4699H207.63C208.38 27.4699 208.983 27.1765 209.439 26.5898C209.928 26.003 210.173 25.351 210.173 24.6339V11.0895C210.173 10.3723 209.928 9.72035 209.439 9.13359C208.983 8.54683 208.38 8.25345 207.63 8.25345H187.24C186.784 8.25345 186.393 8.35124 186.067 8.54683C185.741 8.74242 185.463 9.0032 185.235 9.32918C185.04 9.65516 184.893 9.98114 184.795 10.3071C184.697 10.6331 184.649 10.8939 184.649 11.0895V24.6339C184.649 24.8295 184.697 25.0902 184.795 25.4162C184.893 25.7422 185.04 26.0682 185.235 26.3942Z" fill="white"/>
</svg>
