<svg width="38" height="37" viewBox="0 0 38 37" fill="none" xmlns="http://www.w3.org/2000/svg">
<path d="M0 10.7568H8.81009L22.0635 0V37L8.81009 26.2433H0V10.7568ZM27.0431 9.00209C29.6478 11.5959 30.9758 14.7492 31.0268 18.4619C31.0268 22.0221 29.6989 25.0735 27.0431 27.6165L24.3618 24.8702C26.2005 23.0392 27.1198 20.8778 27.1198 18.3856C27.1198 15.8426 26.2004 13.6303 24.3618 11.7485L27.0431 9.00209V9.00209ZM31.6397 4.50106C35.4702 8.3155 37.3854 12.9183 37.3854 18.3093C37.3854 23.7004 35.4702 28.3286 31.6397 32.1938L28.8052 29.3712C31.8695 26.3705 33.4017 22.696 33.4017 18.3475C33.4017 13.9991 31.8695 10.2991 28.8052 7.2475L31.6397 4.50106V4.50106Z" fill="white"/>
</svg>
