<svg width="148" height="165" viewBox="0 0 148 165" fill="none" xmlns="http://www.w3.org/2000/svg">
<g opacity="0.3">
<path d="M111.997 32.1071L111.997 32.1071C112.463 32.193 112.844 32.5626 113.02 33.0575C113.196 33.5523 113.133 34.0796 112.826 34.44L113.206 34.7639L112.826 34.44L70.0768 84.5888C69.7454 84.9775 69.2327 85.1596 68.7303 85.067C68.228 84.9745 67.8137 84.6212 67.6427 84.1397L45.5864 22.0429C45.4154 21.5614 45.514 21.026 45.8453 20.6373C46.1768 20.2486 46.6894 20.0665 47.1918 20.1591C47.1919 20.1591 47.1919 20.1591 47.1919 20.1591L111.997 32.1071ZM49.9597 23.5763L49.108 23.4192L49.3979 24.2353L69.2172 80.0342L69.5071 80.8503L70.0689 80.1913L108.484 35.1283L109.046 34.4693L108.194 34.3122L49.9597 23.5763Z" stroke="white"/>
<path d="M45.9278 162.826L45.928 162.826C46.6303 163.183 47.4906 162.903 47.85 162.199L45.9278 162.826ZM45.9278 162.826C45.5885 162.654 45.3478 162.364 45.2292 162.03C45.1023 161.673 45.1168 161.267 45.3015 160.904L110.464 32.8658C110.464 32.8658 110.464 32.8658 110.464 32.8657C110.823 32.1615 111.683 31.8818 112.386 32.2387C113.089 32.5976 113.368 33.4583 113.012 34.161C113.012 34.1611 113.012 34.1612 113.012 34.1614L47.8502 162.199L45.9278 162.826Z" stroke="white"/>
<path d="M45.1474 161.549L45.1474 161.548L45.5041 21.5617C45.5041 21.5617 45.5041 21.5616 45.5041 21.5616C45.5064 20.7707 46.1479 20.1335 46.9357 20.1362L46.9363 20.1362C47.7281 20.138 48.3651 20.7827 48.3615 21.5672L48.3614 21.5682L48.0047 161.555C48.0025 162.346 47.361 162.983 46.5731 162.98L46.5727 162.98C45.9524 162.979 45.426 162.583 45.2295 162.03C45.1757 161.878 45.1467 161.718 45.1474 161.549Z" stroke="white"/>
<path d="M45.2016 161.158L45.2016 161.158L67.6146 83.268C67.6146 83.268 67.6146 83.268 67.6146 83.2679C67.834 82.508 68.6251 82.0706 69.3833 82.2883C70.1418 82.5061 70.5805 83.2999 70.3625 84.0564L70.3625 84.0566L47.9495 161.946C47.7302 162.706 46.9394 163.143 46.1813 162.926C45.7213 162.793 45.3779 162.449 45.2284 162.029C45.132 161.757 45.1162 161.454 45.2016 161.158Z" stroke="white"/>
</g>
</svg>
